…
## Attaching package: 'ggplot2'
setwd("C:\\CourseraAssignments\\ReproducibleResearch\\Activity")
##Download the zip file from the 
## https://d396qusza40orc.cloudfront.net/repdata%2Fdata%2Factivity.zip
## Unzip the file and place it in the folder Activity 
Activitydata <- read.csv("activity.csv", header = TRUE, sep = ',', colClasses = c("numeric", "character","integer"))
Activitydata$date <- ymd(Activitydata$date)
##Using Dplyr to get the neccessary sub grouping and summarize the result 
steps <- Activitydata %>%
  filter(!is.na(steps)) %>%
  group_by(date) %>%
  summarize(steps = sum(steps)) %>%
  print

## # A tibble: 53 × 2
##          date steps
##        <date> <dbl>
## 1  2012-10-02   126
## 2  2012-10-03 11352
## 3  2012-10-04 12116
## 4  2012-10-05 13294
## 5  2012-10-06 15420
## 6  2012-10-07 11015
## 7  2012-10-09 12811
## 8  2012-10-10  9900
## 9  2012-10-11 10304
## 10 2012-10-12 17382
## # ... with 43 more rows
…
##Code to describe and show a strategy for imputing missing data
data_full <- Activitydata
nas <- is.na(data_full$steps)
## Identify the mean/average for that day
## Create new dataset that is equal to the original dataset but with the missing data filled in
avg_interval <- tapply(data_full$steps, data_full$interval, mean, na.rm=TRUE, simplify=TRUE)
data_full$steps[nas] <- avg_interval[as.character(data_full$interval[nas])]
steps_full <- data_full %>%
  filter(!is.na(steps)) %>%
  group_by(date) %>%
  summarize(steps = sum(steps)) %>%
  print

## # A tibble: 61 × 2
##          date    steps
##        <date>    <dbl>
## 1  2012-10-01 10766.19
## 2  2012-10-02   126.00
## 3  2012-10-03 11352.00
## 4  2012-10-04 12116.00
## 5  2012-10-05 13294.00
## 6  2012-10-06 15420.00
## 7  2012-10-07 11015.00
## 8  2012-10-08 10766.19
## 9  2012-10-09 12811.00
## 10 2012-10-10  9900.00
## # ... with 51 more rows
…
